%YAML 1.1
%TAG !u! tag:unity3d.com,2011:
--- !u!114 &11400000
MonoBehaviour:
  m_ObjectHideFlags: 0
  m_CorrespondingSourceObject: {fileID: 0}
  m_PrefabInstance: {fileID: 0}
  m_PrefabAsset: {fileID: 0}
  m_GameObject: {fileID: 0}
  m_Enabled: 1
  m_EditorHideFlags: 0
  m_Script: {fileID: 11500000, guid: 738e6a8bef7c4121bae03af2aa98841f, type: 3}
  m_Name: Quit Button
  m_EditorClassIdentifier: 
  _key: ScorePopup_QuitButton
  _nativeValue: Quit
  _values:
  - _languageId: RuLanguage
    _value: "\u0412\u044B\u0445\u043E\u0434"
  - _languageId: EnLanguage
    _value: Quit
  - _languageId: DeLanguage
    _value: Quit
  - _languageId: FrLanguage
    _value: Quit
  - _languageId: EsLanguage
    _value: Quit
