%YAML 1.1
%TAG !u! tag:unity3d.com,2011:
--- !u!114 &11400000
MonoBehaviour:
  m_ObjectHideFlags: 0
  m_CorrespondingSourceObject: {fileID: 0}
  m_PrefabInstance: {fileID: 0}
  m_PrefabAsset: {fileID: 0}
  m_GameObject: {fileID: 0}
  m_Enabled: 1
  m_EditorHideFlags: 0
  m_Script: {fileID: 11500000, guid: 2bd8f9f2f38f4a6cad69ddbe3b3d6bed, type: 3}
  m_Name: Fragments Data Container
  m_EditorClassIdentifier: 
  _data:
  - {fileID: 6743132394497091598, guid: 06028a9f3c78d5b48a288d9eb98e0cc9, type: 3}
  - {fileID: 6743132394497091598, guid: 8109f8354d7f0c64f92d6fd1ed265bd1, type: 3}
  - {fileID: 6743132394497091598, guid: 0af692020117d6143b648f15373f08b9, type: 3}
  - {fileID: 6743132394497091598, guid: a0d808dc7cdbff542a1dddf8569a8a7a, type: 3}
  - {fileID: 6743132394497091598, guid: 9ffa0f9bf0bb7454fb174cdd4a6f90a0, type: 3}
  - {fileID: 6743132394497091598, guid: f9fc1b6a4fca5884e8f2c4b887a65135, type: 3}
  - {fileID: 6743132394497091598, guid: f438fd3622b6d0c4c849844f8640b5e6, type: 3}
  - {fileID: 6743132394497091598, guid: c5ca6149350d3af48873c29cf139e8aa, type: 3}
  - {fileID: 6743132394497091598, guid: 1736df2b55336bc4daa3f592aae6219d, type: 3}
  - {fileID: 6743132394497091598, guid: 1c242c19a558d864ba6672b60d506e05, type: 3}
  - {fileID: 6743132394497091598, guid: 250928da2eb7ba744b762c9185977591, type: 3}
  - {fileID: 6743132394497091598, guid: 150b3089255ab28468238ee3ed388bae, type: 3}
  - {fileID: 6743132394497091598, guid: 427c0af2c1ea0814d98d1dc616b54c11, type: 3}
  - {fileID: 6743132394497091598, guid: 9f85e1146ed67e94baf70d139caa3fa4, type: 3}
  - {fileID: 6743132394497091598, guid: a93369ef1be1a9740a6f9ebd9adab419, type: 3}
  - {fileID: 6743132394497091598, guid: 7e36953e9937371489fb7c686d1d8450, type: 3}
  - {fileID: 6743132394497091598, guid: 241cd4f05c65ce244acaa0c05dbff4b0, type: 3}
  - {fileID: 6743132394497091598, guid: ee810d612d76a9f4abf91025b4e9f7b9, type: 3}
  - {fileID: 6743132394497091598, guid: 7d85ec5aa40d65d498aa8933189670a2, type: 3}
