%YAML 1.1
%TAG !u! tag:unity3d.com,2011:
--- !u!78 &1
TagManager:
  serializedVersion: 2
  tags: []
  layers:
  - Default
  - TransparentFX
  - Ignore Raycast
  - 
  - Water
  - UI
  - 
  - 
  - 
  - 
  - 
  - 
  - 
  - 
  - 
  - 
  - 
  - 
  - 
  - 
  - 
  - 
  - 
  - 
  - 
  - 
  - 
  - 
  - 
  - 
  - 
  - 
  m_SortingLayers:
  - name: Default
    uniqueID: 0
    locked: 0
  - name: UI Page Back
    uniqueID: 1521673569
    locked: 0
  - name: Game Field
    uniqueID: 1063813689
    locked: 0
  - name: Tiles
    uniqueID: 2687733231
    locked: 0
  - name: UI Page Front
    uniqueID: 2596108383
    locked: 0
  - name: UI Popup
    uniqueID: 2003401233
    locked: 0
  - name: UI Messagebox
    uniqueID: 3479036859
    locked: 0
