%YAML 1.1
%TAG !u! tag:unity3d.com,2011:
--- !u!114 &11400000
MonoBehaviour:
  m_ObjectHideFlags: 0
  m_CorrespondingSourceObject: {fileID: 0}
  m_PrefabInstance: {fileID: 0}
  m_PrefabAsset: {fileID: 0}
  m_GameObject: {fileID: 0}
  m_Enabled: 1
  m_EditorHideFlags: 0
  m_Script: {fileID: 11500000, guid: 502a1e711d78480d87b4a43531a97991, type: 3}
  m_Name: Game - Target Handler Log Data
  m_EditorClassIdentifier: 
  _parentLogData: {fileID: 11400000, guid: a20fec8613f68a2458cf6d8cdc53cd65, type: 2}
  _isEnable: 0
  _prefix:
    text: Target Handler
    _color: {r: 0.44705883, g: 0.51537997, b: 0.6039216, a: 1}
  _textColor: {r: 1, g: 1, b: 1, a: 1}
