%YAML 1.1
%TAG !u! tag:unity3d.com,2011:
--- !u!1001 &1059182210674300505
PrefabInstance:
  m_ObjectHideFlags: 0
  serializedVersion: 2
  m_Modification:
    serializedVersion: 3
    m_TransformParent: {fileID: 0}
    m_Modifications:
    - target: {fileID: 3436331868255881429, guid: c495e35bf52e3584fb586efc9a177ae7, type: 3}
      propertyPath: m_LocalPosition.x
      value: 0.5
      objectReference: {fileID: 0}
    - target: {fileID: 3436331868255881429, guid: c495e35bf52e3584fb586efc9a177ae7, type: 3}
      propertyPath: m_LocalPosition.y
      value: 0
      objectReference: {fileID: 0}
    - target: {fileID: 5332938047659238669, guid: c495e35bf52e3584fb586efc9a177ae7, type: 3}
      propertyPath: m_LocalPosition.x
      value: 0
      objectReference: {fileID: 0}
    - target: {fileID: 5332938047659238669, guid: c495e35bf52e3584fb586efc9a177ae7, type: 3}
      propertyPath: m_LocalPosition.y
      value: 0
      objectReference: {fileID: 0}
    - target: {fileID: 5332938047659238669, guid: c495e35bf52e3584fb586efc9a177ae7, type: 3}
      propertyPath: m_LocalPosition.z
      value: 0
      objectReference: {fileID: 0}
    - target: {fileID: 5332938047659238669, guid: c495e35bf52e3584fb586efc9a177ae7, type: 3}
      propertyPath: m_LocalRotation.w
      value: 1
      objectReference: {fileID: 0}
    - target: {fileID: 5332938047659238669, guid: c495e35bf52e3584fb586efc9a177ae7, type: 3}
      propertyPath: m_LocalRotation.x
      value: 0
      objectReference: {fileID: 0}
    - target: {fileID: 5332938047659238669, guid: c495e35bf52e3584fb586efc9a177ae7, type: 3}
      propertyPath: m_LocalRotation.y
      value: 0
      objectReference: {fileID: 0}
    - target: {fileID: 5332938047659238669, guid: c495e35bf52e3584fb586efc9a177ae7, type: 3}
      propertyPath: m_LocalRotation.z
      value: 0
      objectReference: {fileID: 0}
    - target: {fileID: 5332938047659238669, guid: c495e35bf52e3584fb586efc9a177ae7, type: 3}
      propertyPath: m_LocalEulerAnglesHint.x
      value: 0
      objectReference: {fileID: 0}
    - target: {fileID: 5332938047659238669, guid: c495e35bf52e3584fb586efc9a177ae7, type: 3}
      propertyPath: m_LocalEulerAnglesHint.y
      value: 0
      objectReference: {fileID: 0}
    - target: {fileID: 5332938047659238669, guid: c495e35bf52e3584fb586efc9a177ae7, type: 3}
      propertyPath: m_LocalEulerAnglesHint.z
      value: 0
      objectReference: {fileID: 0}
    - target: {fileID: 5864597267288925430, guid: c495e35bf52e3584fb586efc9a177ae7, type: 3}
      propertyPath: m_LocalPosition.x
      value: -0.5
      objectReference: {fileID: 0}
    - target: {fileID: 5864597267288925430, guid: c495e35bf52e3584fb586efc9a177ae7, type: 3}
      propertyPath: m_LocalPosition.y
      value: 1
      objectReference: {fileID: 0}
    - target: {fileID: 6302482665700355187, guid: c495e35bf52e3584fb586efc9a177ae7, type: 3}
      propertyPath: m_Name
      value: Fragment Variant 06
      objectReference: {fileID: 0}
    - target: {fileID: 7696077990546578996, guid: c495e35bf52e3584fb586efc9a177ae7, type: 3}
      propertyPath: m_LocalPosition.x
      value: -0.5
      objectReference: {fileID: 0}
    - target: {fileID: 7696077990546578996, guid: c495e35bf52e3584fb586efc9a177ae7, type: 3}
      propertyPath: m_LocalPosition.y
      value: 0
      objectReference: {fileID: 0}
    - target: {fileID: 8468769612333219660, guid: c495e35bf52e3584fb586efc9a177ae7, type: 3}
      propertyPath: m_LocalPosition.x
      value: -0.5
      objectReference: {fileID: 0}
    - target: {fileID: 8468769612333219660, guid: c495e35bf52e3584fb586efc9a177ae7, type: 3}
      propertyPath: m_LocalPosition.y
      value: -1
      objectReference: {fileID: 0}
    m_RemovedComponents: []
    m_RemovedGameObjects: []
    m_AddedGameObjects: []
    m_AddedComponents: []
  m_SourcePrefab: {fileID: 100100000, guid: c495e35bf52e3584fb586efc9a177ae7, type: 3}
